<?xml version="1.0" encoding="UTF-8" standalone="no"?>
<!DOCTYPE svg PUBLIC "-//W3C//DTD SVG 1.1//EN" "http://www.w3.org/Graphics/SVG/1.1/DTD/svg11.dtd">
<svg xmlns="http://www.w3.org/2000/svg" version="1.1" width="200" height="200" viewBox="-48 -33 50 50">
<desc id="en">Observed wind speed: 43–47 knots</desc>
<g style="fill:none; stroke:black; stroke-width:2;">
	<path d="M 0,0 h -40 l -5,-17"/>
	<path d="M -35,0 l -5,-17"/>
	<path d="M -30,0 l -5,-17"/>
	<path d="M -25,0 l -5,-17"/>
	<path d="M -20,0 l -2.5,-8.5"/>
</g>
</svg>